<?xml version="1.0" encoding="UTF-8"?>
<svg width="36mm" height="36mm" version="1.1" viewBox="0 0 36 36" xmlns="http://www.w3.org/2000/svg">
 <g transform="translate(-113.54 -46.251)" stroke-width=".26458">
  <path d="m130.81 80.68c-3.9432-1.1279-6.4037-3.9192-6.4161-7.2788-0.0108-2.9227 1.7218-5.0795 4.5975-5.723 1.7663-0.39527 3.3058 0.0062 4.6111 1.2023 0.87349 0.8005 0.9718 1.0272 0.99001 2.2835 0.0234 1.6122 0.3583 1.8722 1.1368 0.88251 1.7717-2.2523 0.33563-5.5119-3.1256-7.0949-0.94578-0.43254-1.7433-0.55204-3.7176-0.55712-2.3512-6e-3 -2.6417 0.05525-4.4979 0.94904-3.2927 1.5855-5.0677 3.5359-7.3718 8.1003-0.76332 1.5121-1.4237 2.189-2.1358 2.189-0.18662 0-0.28198-1.2974-0.28198-3.8365 0-3.0996 0.0707-3.8365 0.36792-3.8365 0.20235 0 1.4823-0.73326 2.8443-1.6295 4.4849-2.9511 7.128-3.9184 10.721-3.9236 4.608-0.0067 8.6044 2.2768 9.8645 5.6365 0.45631 1.2166 0.33814 3.5267-0.23819 4.6564-0.98244 1.9257-3.0394 3.1977-5.171 3.1977-1.5818 0-2.7618-0.51576-3.682-1.6094-0.68769-0.81727-0.73422-1.0089-0.58702-2.4172 0.18633-1.7827-0.10836-1.9663-1.2476-0.77715-1.3511 1.4102-1.1748 3.6799 0.42764 5.5049 2.4058 2.74 7.377 3.2793 11.439 1.241 2.7115-1.3606 4.224-3.0379 6.5741-7.2902 0.88364-1.5989 1.782-2.5894 2.3484-2.5894 0.11315 0 0.20571 1.7148 0.20571 3.8106v3.8106l-0.77083 0.26871c-0.42396 0.14779-1.6444 0.86027-2.712 1.5833-5.1292 3.4735-9.7106 4.5232-14.172 3.247zm11.136-17.745c-1.1428-0.75106-2.043-2.8878-1.8888-4.4837 0.23944-2.4785 1.5083-4.0378 3.2856-4.0378 1.9175 0 3.2702 1.8342 3.2702 4.4342 0 3.384-2.4595 5.538-4.6669 4.0873zm-23.114-0.45419c-2.1272-0.78216-3.1176-4.7146-1.7814-7.0736 0.3251-0.57397 0.98691-1.2748 1.4707-1.5573 1.967-1.1488 4.1548 0.62556 4.4639 3.6204 0.31113 3.0146-1.9996 5.8023-4.1532 5.0105zm15.397-6.4333c-2.3299-1.4205-2.5093-6.4704-0.28511-8.0283 0.7171-0.50228 2.1388-0.56414 2.9528-0.1285 2.6755 1.4319 2.6195 6.9034-0.085 8.3019-1.0078 0.52113-1.5388 0.49128-2.5827-0.14516zm-8.7977-0.44421c-1.0947-0.92116-1.5733-2.0947-1.566-3.8403 0.0154-3.7133 2.967-5.7537 5.1563-3.5644 2.0321 2.0321 1.7499 6.2425-0.51074 7.621-1.1307 0.68953-2.0825 0.62267-3.0796-0.21633z" fill="#30a4f2"/>
  <path d="m132.59 81.027c-0.36381-0.06812-0.89959-0.23027-1.1906-0.36033s-1.1042-0.47979-1.807-0.77717c-1.8863-0.79815-3.2247-1.978-3.9931-3.52-1.2435-2.4953-0.67782-3.9338 0.59396-1.5105 1.769 3.3707 5.3372 5.0401 9.5106 4.4495 4.3487-0.61538 7.9076-3.5499 10.485-8.645 0.73055-1.4444 1.5507-2.4384 2.012-2.4384 0.16379 0 0.26458 1.4111 0.26458 3.7042 0 3.6648-6e-3 3.7042-0.59531 3.7048-0.32742 2.65e-4 -1.4883 0.60246-2.5797 1.338-2.4874 1.6763-4.4711 2.7017-6.6413 3.433-1.6487 0.55557-4.7259 0.8714-6.0587 0.62184zm-17.992-9.0977c0-3.2392 0.0538-3.7042 0.42893-3.7042 0.2359 0 1.4893-0.61196 2.7852-1.3599s2.4123-1.3039 2.4807-1.2355c0.40963 0.40963 0.0863 1.5845-0.78696 2.86-0.54801 0.80036-1.4721 2.4077-2.0535 3.5719-0.99794 1.9982-2.1608 3.5719-2.6394 3.5719-0.11829 0-0.21508-1.6669-0.21508-3.7042zm28.415-9.1916c-0.16081-0.11059-0.44496-0.67732-0.63143-1.2594-0.18647-0.58208-0.62045-1.6199-0.96438-2.3063-0.7424-1.4816-0.76391-1.8174-0.18781-2.9324 0.57515-1.1131 1.1039-1.4896 2.1065-1.4998 2.7711-0.02829 4.0909 4.6807 1.9913 7.1051-0.71947 0.83078-1.7988 1.2472-2.3142 0.89276zm-24.347-0.85868c-1.3818-0.55799-2.2457-2.9796-1.8381-5.1524 0.27028-1.4407 1.5805-2.789 2.7101-2.789 1.1931 0 1.8417 0.3662 2.3337 1.3176 0.5436 1.0512 0.50239 2.5504-0.0975 3.5459-0.2734 0.45374-0.64225 1.2788-0.81969 1.8336-0.2105 0.65811-0.54943 1.0948-0.97535 1.2568-0.35901 0.1365-0.67476 0.24063-0.70167 0.2314-0.0269-0.0092-0.3021-0.11901-0.61153-0.24396zm6.3109-7.4783c-0.56731-0.6958-0.92056-2.533-0.73061-3.7997 0.14681-0.97897 0.42222-1.504 1.1935-2.2753 1.5377-1.5377 2.908-1.2427 3.9789 0.85638 0.84641 1.6591 0.56749 4.2233-0.46002 4.229-0.25826 0.0014-1.1065 0.29908-1.8849 0.66146-1.6286 0.75818-1.7329 0.77449-2.0968 0.32814zm11.966 0.08952c-0.13824-0.13266-1.0848-0.52397-2.1034-0.86957l-1.8521-0.62836-0.0822-1.2858c-0.0452-0.70718 0.054-1.6148 0.2206-2.0169 0.39881-0.96282 1.6985-2.102 2.3982-2.102 0.7597 0 2.0179 0.93803 2.4945 1.8598 0.51023 0.98669 0.5042 3.5075-0.0108 4.5033-0.42472 0.82132-0.65136 0.93613-1.0648 0.5394z" fill="#0d5fbc"/>
 </g>
</svg>
